<svg width="87" height="21" viewBox="0 0 87 21" fill="none" xmlns="http://www.w3.org/2000/svg">
<path d="M28.1245 2.64068C28.1245 3.26556 27.9407 3.76317 27.5726 4.13437C27.1545 4.57577 26.6097 4.79663 25.9398 4.79663C25.2983 4.79663 24.7529 4.57288 24.3044 4.12475C23.8551 3.67696 23.6309 3.12166 23.6309 2.45914C23.6309 1.79631 23.8551 1.24135 24.3044 0.793183C24.7529 0.34542 25.2983 0.121338 25.9398 0.121338C26.2581 0.121338 26.5628 0.184021 26.8522 0.309017C27.1415 0.434316 27.3736 0.600642 27.5472 0.808937L27.1565 1.20253C26.8623 0.848558 26.4572 0.671705 25.9398 0.671705C25.472 0.671705 25.0675 0.837228 24.726 1.16847C24.3846 1.50006 24.2139 1.93005 24.2139 2.45914C24.2139 2.98825 24.3846 3.41821 24.726 3.74983C25.0675 4.08108 25.472 4.24656 25.9398 4.24656C26.4361 4.24656 26.8499 4.08017 27.1811 3.74691C27.3962 3.5298 27.5205 3.22802 27.5538 2.84049H25.9398V2.30296H28.0935C28.1143 2.41985 28.1244 2.53201 28.1244 2.64068" fill="#383838"/>
<path d="M28.1253 2.63794H28.0512C28.0506 3.24859 27.8735 3.72288 27.521 4.07894L27.5203 4.07954L27.5199 4.08015C27.1151 4.50633 26.5948 4.71846 25.9406 4.71936C25.3162 4.71846 24.7936 4.50402 24.3573 4.06932C23.9218 3.63375 23.7065 3.102 23.7057 2.45639C23.7065 1.81047 23.9218 1.27903 24.3573 0.843758C24.7936 0.408756 25.3162 0.19402 25.9406 0.193115C26.2493 0.193115 26.5433 0.253788 26.8237 0.374665C27.1044 0.49648 27.3261 0.656107 27.4913 0.854284L27.548 0.806147L27.4956 0.753419L27.105 1.14729L27.1573 1.19975L27.2144 1.15202C26.9064 0.780504 26.4742 0.593222 25.9406 0.594328C25.4554 0.593725 25.0286 0.768302 24.6756 1.11213C24.3191 1.45706 24.14 1.91127 24.1406 2.45639C24.14 3.00154 24.3191 3.45572 24.6756 3.80068C25.0286 4.14451 25.4554 4.31905 25.9406 4.31845C26.4533 4.31935 26.8903 4.14421 27.2343 3.79693C27.4641 3.56496 27.5943 3.24366 27.6284 2.84416L27.6353 2.76317H26.0147V2.3748H28.0943V2.30021L28.0213 2.31332C28.0416 2.42642 28.0512 2.53389 28.0512 2.63794H28.1993C28.1993 2.52457 28.1889 2.40805 28.1672 2.28687L28.1562 2.22563H25.8666V2.91234H27.5546V2.83776L27.4809 2.83135C27.4482 3.20666 27.3295 3.48927 27.1296 3.6915C26.8113 4.01079 26.4207 4.16837 25.9406 4.16928C25.4901 4.16868 25.1079 4.0125 24.7783 3.69348C24.4519 3.3756 24.2896 2.96976 24.2888 2.45639C24.2896 1.94301 24.4519 1.53717 24.7783 1.21929C25.1079 0.900275 25.4901 0.7441 25.9406 0.743497C26.4415 0.744704 26.8197 0.911337 27.1007 1.24785L27.1528 1.3102L27.6004 0.85891L27.6484 0.810572L27.6047 0.758347C27.4227 0.53989 27.1802 0.366486 26.8822 0.237765C26.5836 0.108642 26.2685 0.0439464 25.9406 0.0439464C25.2821 0.0433765 24.7138 0.276448 24.2528 0.737698C23.7902 1.19804 23.557 1.77668 23.5576 2.45639C23.557 3.13579 23.7902 3.71477 24.2531 4.17538C24.7138 4.63633 25.2821 4.86913 25.9406 4.86853C26.6264 4.86913 27.1953 4.63978 27.627 4.18323L27.5734 4.13167L27.6258 4.18443C28.0095 3.79837 28.1999 3.27685 28.1994 2.63794H28.1253H28.1253ZM31.5396 0.768571H29.5156V2.18752H31.3408V2.72526H29.5156V4.14421H31.5396V4.69399H28.945V0.218792H31.5396V0.768571" fill="#383838"/>
<path d="M31.5388 0.770094V0.695512H29.4407V2.26357H31.266V2.65194L29.4407 2.65214V4.2202H31.4647V4.62079H29.0183V0.294915H31.4647V0.770094H31.5388V0.695512V0.770094H31.6129V0.145752H28.8701V4.76996H31.6129V4.07103H29.5888V2.8013H31.4141V2.11441H29.5888V0.844676H31.6129V0.770094H31.5388V0.770094ZM33.9471 4.69541H33.3756V0.77006H32.1343V0.2203H35.1884V0.77006H33.9471V4.69534" fill="#383838"/>
<path d="M33.9484 4.69526V4.62065H33.451V0.695494H32.2097V0.294944H35.1156V0.695494H33.8743V4.69523H33.9484V4.62065V4.69523H34.0225V0.844653H35.2638V0.145752H32.0615V0.84462H33.3028V4.76978H34.0225V4.6952H33.9484V4.69526ZM37.3995 4.69526V0.220298H37.9704V4.6952H37.3995" fill="#383838"/>
<path d="M37.3983 4.69541H37.4724V0.294915H37.8951V4.62079H37.3983V4.69538H37.4724H37.3983V4.76996H38.0432V0.145752H37.3242V4.76996H37.3983V4.69538V4.69541ZM40.5024 4.69541H39.931V0.77006H38.6897V0.2203H41.7438V0.77006H40.5024V4.69534" fill="#383838"/>
<path d="M40.503 4.69671V4.62209H40.0056V0.696778H38.7644V0.296212H41.6703V0.696778H40.4289V4.69667H40.503V4.62209V4.69667H40.5771V0.845943H41.8184V0.147014H38.6162V0.84591H39.8575V4.77122H40.5771V4.69664H40.503V4.69671ZM44.6888 3.74373C45.0177 4.07903 45.4203 4.24653 45.8963 4.24653C46.3723 4.24653 46.775 4.07903 47.1034 3.74373C47.4327 3.40839 47.5977 2.97974 47.5977 2.45914C47.5977 1.93857 47.4327 1.50991 47.1034 1.17457C46.775 0.839239 46.3723 0.671705 45.8963 0.671705C45.4203 0.671705 45.0177 0.839239 44.6888 1.17457C44.3604 1.50991 44.1955 1.93853 44.1955 2.45914C44.1955 2.97974 44.3604 3.40839 44.6888 3.74373ZM47.5259 4.11835C47.0889 4.57077 46.5455 4.79663 45.8963 4.79663C45.2464 4.79663 44.7032 4.57077 44.2672 4.11835C43.83 3.66643 43.6124 3.11325 43.6124 2.45914C43.6124 1.80502 43.83 1.25174 44.2672 0.79992C44.7032 0.347398 45.2464 0.121338 45.8963 0.121338C46.5421 0.121338 47.084 0.348604 47.523 0.802836C47.9614 1.25703 48.1807 1.80911 48.1807 2.45914C48.1807 3.11325 47.9619 3.66643 47.5259 4.11835Z" fill="#383838"/>
<path d="M44.6885 3.74102L44.6359 3.79344C44.977 4.1422 45.4027 4.31935 45.896 4.31845C46.3891 4.31935 46.8153 4.1422 47.1559 3.79344C47.4993 3.44435 47.672 2.99276 47.6715 2.45639C47.672 1.92005 47.4993 1.46842 47.1559 1.11934C46.8153 0.770583 46.3891 0.593457 45.896 0.594329C45.4027 0.593457 44.977 0.770583 44.6359 1.11934C44.2933 1.46842 44.1202 1.92005 44.1211 2.45639C44.1202 2.99273 44.2933 3.44435 44.6359 3.79344L44.6885 3.74102L44.7412 3.68856C44.427 3.36659 44.2699 2.96158 44.2693 2.45639C44.2699 1.95123 44.427 1.54623 44.7412 1.22422C45.0583 0.90232 45.4371 0.744403 45.896 0.743531C46.3546 0.744403 46.7342 0.90232 47.0506 1.22422C47.3654 1.54623 47.5225 1.95123 47.523 2.45639C47.5225 2.96155 47.3654 3.36659 47.0506 3.68856C46.7342 4.01049 46.3546 4.16838 45.896 4.16925C45.4371 4.16838 45.0583 4.01049 44.7412 3.68856L44.6885 3.74102ZM47.5256 4.11565L47.4727 4.06382C47.048 4.50201 46.5285 4.71849 45.896 4.71936C45.2632 4.71846 44.7438 4.50201 44.3199 4.06382L44.3179 4.06148L44.3199 4.06382C43.896 3.62413 43.6868 3.09389 43.6862 2.45639C43.6868 1.81889 43.896 1.28865 44.3199 0.848988C44.7438 0.410768 45.2632 0.194021 45.896 0.19315C46.5245 0.194021 47.0427 0.411673 47.4698 0.852173C47.8951 1.29388 48.1055 1.82328 48.1064 2.45639C48.1055 3.09389 47.8957 3.62413 47.4727 4.06382L47.5256 4.11565L47.5789 4.16747C48.0279 3.7031 48.2551 3.12708 48.2546 2.45639C48.2551 1.78952 48.0271 1.21467 47.576 0.748224C47.1246 0.279935 46.5592 0.0431429 45.896 0.0439474C45.2294 0.0431429 44.6622 0.278829 44.2137 0.745308V0.744973C43.7638 1.20967 43.5375 1.7857 43.5381 2.45639C43.5375 3.12708 43.7638 3.7031 44.2137 4.16777L44.2157 4.16988L44.2137 4.16747C44.6622 4.63395 45.2294 4.86913 45.896 4.86853C46.5624 4.86913 47.1295 4.63395 47.5789 4.16747L47.5256 4.11565V4.11565ZM48.9819 4.69402V0.218759H49.677L51.837 3.70015H51.8616L51.837 2.83772V0.218759H52.4085V4.69395H51.8124L49.5526 1.04385H49.528L49.5526 1.90658V4.69395H48.982" fill="#383838"/>
<path d="M48.9818 4.69543H49.0559V0.294916H49.6358L51.7958 3.77621H51.9376L51.9109 2.83811V0.29495H52.3343V4.62081H51.8534L49.5936 0.970814H49.4518L49.4784 1.90931V4.62081H48.9819V4.69539H49.0559H48.9819V4.76997H49.6265V1.90693L49.6019 1.04339L49.5278 1.0454V1.11998H49.5525V1.0454L49.4896 1.08505L51.7712 4.76997H52.4824V0.145752H51.7628V2.84009L51.7874 3.70364L51.8615 3.70162V3.62704H51.8369V3.70162L51.8997 3.66204L49.7179 0.145752H48.9078V4.76997H48.9819V4.69539L48.9818 4.69543ZM72.212 17.3747H73.5942V8.05081H72.2119L72.212 17.3747ZM84.6616 11.4095L83.0772 15.4519H83.0297L81.3853 11.4095H79.8964L82.3623 17.0595L80.9564 20.2023H82.3986L86.1986 11.4095L84.6616 11.4095ZM76.8231 16.3157C76.3697 16.3157 75.7386 16.0879 75.7386 15.5239C75.7386 14.8042 76.5253 14.5283 77.2038 14.5283C77.812 14.5283 78.0972 14.6603 78.4668 14.8404C78.3594 15.7039 77.6208 16.3157 76.8231 16.3157V16.3157ZM76.9897 11.2055C75.989 11.2055 74.9527 11.6495 74.5238 12.6331L75.7505 13.1488C76.0127 12.6331 76.5008 12.465 77.0135 12.465C77.7283 12.465 78.4549 12.8971 78.4668 13.6648V13.7607C78.2164 13.6167 77.6808 13.4008 77.0253 13.4008C75.7031 13.4008 74.3564 14.1324 74.3564 15.4999C74.3564 16.7475 75.4409 17.5513 76.6557 17.5513C77.5853 17.5513 78.0971 17.1315 78.4194 16.6397H78.4668V17.3593H79.8009V13.7845C79.8009 12.1294 78.5742 11.2055 76.9897 11.2055V11.2055ZM68.4475 12.5445H66.4816V9.34851H68.4475C69.4809 9.34851 70.0675 10.21 70.0675 10.9465C70.0675 11.669 69.4808 12.5445 68.4475 12.5445ZM68.412 8.05081H65.1001V17.3747H66.4815V13.8422H68.412C69.9438 13.8422 71.4497 12.7255 71.4497 10.9465C71.4497 9.16757 69.9438 8.05081 68.412 8.05081V8.05081ZM50.3519 16.3175C49.397 16.3175 48.5976 15.5125 48.5976 14.4068C48.5976 13.2896 49.397 12.4723 50.3519 12.4723C51.2947 12.4723 52.0345 13.2895 52.0345 14.4068C52.0345 15.5125 51.2947 16.3175 50.352 16.3175H50.3519ZM51.939 11.9316H51.8913C51.5811 11.5592 50.9841 11.2227 50.2325 11.2227C48.6572 11.2227 47.2133 12.6165 47.2133 14.4068C47.2133 16.1852 48.6572 17.5671 50.2325 17.5671C50.9841 17.5671 51.5811 17.2305 51.8913 16.8462H51.939V17.3028C51.939 18.5166 51.2947 19.1654 50.2565 19.1654C49.4092 19.1654 48.8841 18.5524 48.669 18.0358L47.464 18.5404C47.81 19.3815 48.7289 20.415 50.2565 20.415C51.8794 20.415 53.2518 19.4535 53.2518 17.1105V11.415H51.939V11.9316ZM54.2064 17.3747H55.5907V8.05048H54.2064V17.3747ZM57.6314 14.2987C57.5956 13.073 58.5742 12.4484 59.2782 12.4484C59.8275 12.4484 60.2927 12.7246 60.4475 13.1215L57.6314 14.2987ZM61.9275 13.2414C61.6653 12.5323 60.8653 11.2227 59.2304 11.2227C57.6074 11.2227 56.259 12.5084 56.259 14.3949C56.259 16.1733 57.5956 17.5671 59.3855 17.5671C60.8297 17.5671 61.6653 16.6778 62.0112 16.1613L60.9371 15.4402C60.5793 15.969 60.0897 16.3175 59.3855 16.3175C58.6815 16.3175 58.1804 15.9929 57.858 15.3563L62.0705 13.6018L61.9275 13.2414ZM28.3658 12.1961V13.5418H31.564C31.4685 14.2987 31.2179 14.8514 30.836 15.236C30.3707 15.7047 29.6427 16.2213 28.3658 16.2213C26.3967 16.2213 24.8574 14.6233 24.8574 12.6406C24.8574 10.6581 26.3967 9.0598 28.3658 9.0598C29.428 9.0598 30.2035 9.48044 30.7763 10.0212L31.7191 9.072C30.9196 8.30282 29.8574 7.71407 28.3658 7.71407C25.6687 7.71407 23.4014 9.92505 23.4014 12.6406C23.4014 15.3563 25.6687 17.5671 28.3658 17.5671C29.8218 17.5671 30.9196 17.0866 31.7787 16.1852C32.6618 15.296 32.9364 14.0464 32.9364 13.0372C32.9364 12.7246 32.9127 12.4364 32.8646 12.1961H28.3658ZM36.5724 16.3175C35.6175 16.3175 34.7941 15.5244 34.7941 14.3949C34.7941 13.2534 35.6175 12.4723 36.5724 12.4723C37.5269 12.4723 38.3504 13.2534 38.3504 14.3949C38.3504 15.5244 37.5269 16.3175 36.5724 16.3175ZM36.5724 11.2227C34.8299 11.2227 33.4098 12.5564 33.4098 14.3949C33.4098 16.2213 34.8299 17.5671 36.5724 17.5671C38.3146 17.5671 39.7347 16.2213 39.7347 14.3949C39.7347 12.5564 38.3146 11.2227 36.5724 11.2227ZM43.4711 16.3175C42.5166 16.3175 41.693 15.5244 41.693 14.3949C41.693 13.2534 42.5166 12.4723 43.4711 12.4723C44.4257 12.4723 45.2492 13.2534 45.2492 14.3949C45.2492 15.5244 44.4257 16.3175 43.4711 16.3175H43.4711ZM43.4711 11.2227C41.7287 11.2227 40.3088 12.5564 40.3088 14.3949C40.3088 16.2213 41.7287 17.5671 43.4711 17.5671C45.2133 17.5671 46.6335 16.2213 46.6335 14.3949C46.6335 12.5564 45.2133 11.2227 43.4711 11.2227H43.4711Z" fill="#383838"/>
<path d="M0.784661 0.677909C0.536078 0.903737 0.387695 1.28041 0.387695 1.7804V1.66737V18.1665V18.0578C0.387695 18.5196 0.514971 18.8762 0.73051 19.1058L0.785528 19.1588V19.1591C0.959986 19.3176 1.18369 19.4018 1.44008 19.4015C1.6906 19.4015 1.97246 19.3211 2.26992 19.1513L13.0219 13L16.7151 10.8868C17.1842 10.6185 17.4475 10.2724 17.4915 9.91981V9.91837C17.4475 9.565 17.1842 9.21913 16.7152 8.9508L13.0216 6.8379L2.26995 0.686625C1.97186 0.516508 1.68979 0.435791 1.43861 0.435791C1.18253 0.435791 0.959119 0.519693 0.784727 0.677909H0.784661Z" fill="#00C1FF"/>
<path d="M0.785561 19.1562L0.730509 19.1032C0.514971 18.8736 0.387695 18.517 0.387695 18.0552V18.1639V1.6689V1.77784C0.387695 1.27785 0.536078 0.901182 0.784661 0.675355L9.96228 9.9161L0.785561 19.1562Z" fill="#383838"/>
<path d="M13.0215 12.999L9.96191 9.91781L13.0213 6.8371L16.7148 8.94992C17.1838 9.21828 17.4472 9.56411 17.4912 9.91751V9.91891C17.4472 10.2715 17.1838 10.6176 16.7148 10.8859L13.0216 12.999" fill="#E0E0E0"/>
<path d="M1.43964 19.3994C1.18329 19.3996 0.959581 19.3154 0.785156 19.157V19.1567L9.96189 9.91663L13.0215 12.9979L2.26949 19.1492C1.97202 19.319 1.69016 19.3994 1.43964 19.3994Z" fill="#D1D1D1"/>
<path d="M9.96086 9.91748L0.783203 0.67675C0.957661 0.518533 1.18107 0.434631 1.43712 0.434631C1.6883 0.434631 1.9704 0.515315 2.26846 0.685464L13.0202 6.83672L9.96082 9.91748" fill="#898989"/>
<path d="M1.43929 19.5085C1.18294 19.5085 0.958935 19.4243 0.784477 19.2659L0.784177 19.2661C0.783459 19.2654 0.78269 19.2647 0.781876 19.2641L0.73416 19.2172C0.73266 19.2157 0.731259 19.214 0.729492 19.2123L0.78451 19.1569C0.958968 19.3154 1.18264 19.3996 1.43906 19.3993C1.68954 19.3993 1.9714 19.3189 2.26887 19.149L13.0208 12.9979L13.0897 13.0672L13.02 13.1071L2.26884 19.258C1.99775 19.4127 1.73989 19.4934 1.50698 19.5068C1.48444 19.5079 1.46187 19.5085 1.43929 19.5085" fill="#D1D1D1"/>
<path d="M0.730479 19.2129C0.51496 18.9832 0.387695 18.6269 0.387695 18.1648V18.0561C0.387695 18.5179 0.51496 18.8745 0.730479 19.1042L0.785492 19.1572L0.730479 19.2129" fill="#383838"/>
<path d="M13.0904 13.0669L13.0215 12.9975L16.7147 10.8844C17.1838 10.6161 17.4471 10.27 17.4911 9.91742C17.4911 10.0468 17.4624 10.1762 17.4055 10.3021C17.2906 10.5558 17.0603 10.7956 16.7147 10.9934L13.0904 13.0669" fill="#E0E0E0"/>
<path d="M17.4904 9.91748C17.4464 9.56409 17.1831 9.21827 16.7141 8.94992L13.0205 6.83715L13.0894 6.76776H13.0897L16.7141 8.84125C17.2312 9.13726 17.4901 9.52732 17.4904 9.91748" fill="#E0E0E0"/>
<path d="M0.387695 18.7808V18.6668C0.387695 18.6257 0.388796 18.5855 0.390896 18.5465V18.5447C0.390896 18.5441 0.390896 18.5436 0.391096 18.543V18.5386C0.413402 18.1408 0.536069 17.8305 0.730489 17.6234L0.784637 17.6781C0.536069 17.904 0.387695 18.2807 0.387695 18.7808Z" fill="#383838"/>
<path d="M13.0205 6.83618L2.26887 0.684906C1.9708 0.514791 1.68874 0.434108 1.43756 0.434108C1.18148 0.434108 0.958068 0.518009 0.783643 0.676224L0.729492 0.621452C0.746403 0.603425 0.763977 0.586039 0.782176 0.569328C0.782743 0.568725 0.783643 0.568121 0.78421 0.567552C0.957268 0.410543 1.17831 0.326643 1.43209 0.325134H1.43756C1.68874 0.325134 1.9708 0.405851 2.26887 0.576032L13.0897 6.76656L13.0894 6.7668L13.0205 6.83618" fill="#898989"/>
</svg>
